{
    "titre"     :   "Les tapis de cartes",
    "consigneA"  :   "Déposer trois cartes sur chaque tapis pour former le total demandé.",
    "consigneB"	:	"Place les cartes sur les tapis verts pour que le total de chaque tapis égale",
    "opt1"      :   "Nombre de questions : ",
    "opt2"      :   "Nombre d'essais : ",
    "label2"    :   ["un","deux"],
    "opt3"      :   "Temps pour réaliser l'exercice (en secondes)  : "
}