{
    "titre"     :   "La balance " ,
    "consigne"  :   "Cliquer sur les paquets pour les peser. Calculer la masse totale des paquets.",
    "consigne1" :   "Masse totale des paquets :",
    "opt1"      :   "Nombre de questions : ",
    "opt2"      :   "Nombre d'essais : ",
    "label2"    :   ["un","deux"],
    "opt3"      :   "Temps maximum par question : ",
    "opt4"      :   "Type de calcul : ",
    "label4"    :   ["Somme de 3 centaines, conversion en kg","Somme de quatre centaines, conversion en kg","somme de deux centaines et deux dizaines,conversion en kg"],
    "opt5"      :   "Nombre de caisses à peser : ",
    "label5"    :   ["deux","trois","quatre"]
}