{
    "titre"     :   "Décollage immédiat",
    "consigne"  :   "Calculer un horaire ou une durée.",
    "cons1"     :   "DEPART :",
    "cons2"     :   "ARRIVEE :",
    "cons3"     :   "DUREE DU VOL :",
    "opt1"      :   "Nombre de questions : ",
    "opt2"      :   "Nombre d'essais : ",
    "label2"    :   ["un","deux"],
    "opt3"      :   "Temps pour réaliser l'exercice (en secondes)  : ",
    "opt4"      :   "Type de calcul : ",
    "label4"    :   ["durée","heure d'arrivée","heure de départ"]
}