{
    "titre"     :   "Boule et boule",
    "consigne"  :   "Sélectionne tous les couples donnant le résultat demandé.",
    "question"  :   "Sélectionne couples qui ont pour somme ",
    "opt1"      :   "Nombre de questions : ",
    "opt4"      :   "Type de complément : ",
    "label4"    :   ["à l'unité supérieure","à une unité supérieure"],
    "opt5"      :   "Effacement des bulles : ",
    "label5"    :   ["Pas d'effactement","Lent","Moyen","Rapide","Très rapide"],
    "opt6"      :   "Cible : ",
    "label6"    :   ["1","2","3","4","5","6","7","8","9","10"]
 }