{
    "titre":"Le carré",
    "consigneGenerale" :"Tu dois cliquer sur des nombres pour obtenir le résultat demandé en faisant des additions.",
    "consigne1":"Clique sur les nombres qui ont pour somme ",
    "option1":"Temps maximum pour chaque question",
    "option2":"Nombre d'essais",
    "valeur2":["1", "2"],
    "option3":"La cible est un nombre : ",
    "valeur3":["< 20", "< 50","< 100"],
    "option4":"Type de solution : ",
    "valeur4":["Table d'addition","en deux cases", "en deux ou trois cases"]
}