/* XPM */
static char * mini_gv_xpm[] = {
/* width height num_colors chars_per_pixel */
"16 14 3 1",
/* colors */
" 	s None	c None",
".	c black",
"X	c White",
/* pixels */
"     ....       ",
"    .XXXX.      ",
"   .XXXXXX.     ",
"   .XXXXXX.     ",
"  ..X.XX.X...   ",
" .XXX.XX.X.XX.  ",
" .XXXXXXXXXXX.  ",
"  .XXXXXXXXX.   ",
"   .XXXXXXX.    ",
"   .XXXXXXX.    ",
"   .XXXXXXX.    ",
"  .XXXXXXXXX.   ",
" .XXX.XXX.XXX.  ",
"  .... ... ..   "};
