{
    "titre"     :   "La tablette de chocolat",
    "consigne"  :   "Il faut manger une partie de la tablette de chocolat",
	"t1"		:	"Fais glisser le glouton pour qu'il mange ",
	"t2"		:	"Cette tablette pèse ",
	"t3"		:	"ANNULER",	
    "max_essais"      :   "Nombre d'essais : ",
    "label_essais"    :   ["un","deux"],
    "temps_max"      :   "Temps pour réaliser l'exercice (en secondes)  : ",
	"num_tablette"	: "Type de tablette:",
	"label_tablette": ["Tablette 8x5","Tablette 9x4","Tablette 8x6","Tablette 9x8","Mélange"]
}