{
"titre":"La Surface Bleue",
"consigne":"Calculer combien de carreaux ont été colorés en bleu.",
"option1":"Nombre de questions : ",
"option2":"Nombre d'essais  : ",
"label2":["un","deux"],
"option3":"Temps pour réaliser l'exercice (en secondes)  : ",
"option4":"Type de calcul : ",
"label4":["Simple, tables 3 à 6","Simple, tables 5 à 10","Avec addition", "Avec soustraction"],
"consigne1":"Nombre de carreaux colorés en bleu : ",
"consigne2":" carreaux."
}